<?xml version="1.0" standalone="no"?>
<!DOCTYPE svg PUBLIC "-//W3C//DTD SVG 20010904//EN"
 "http://www.w3.org/TR/2001/REC-SVG-20010904/DTD/svg10.dtd">
<svg version="1.0" xmlns="http://www.w3.org/2000/svg"
 width="16.000000pt" height="16.000000pt" viewBox="0 0 16.000000 16.000000"
 preserveAspectRatio="xMidYMid meet">
<metadata>
Created by potrace 1.11, written by Peter Selinger 2001-2013
</metadata>
<g transform="translate(0.000000,16.000000) scale(0.003347,-0.003347)"
fill="#000000" stroke="none">
<path d="M2509 4556 c-2 -2 -26 -7 -54 -10 -27 -4 -57 -9 -65 -11 -8 -2 -32
-6 -52 -9 -21 -3 -75 -12 -120 -20 -46 -8 -99 -17 -118 -21 -19 -3 -48 -8 -63
-11 -16 -3 -38 -7 -50 -9 -21 -3 -121 -19 -177 -30 -14 -2 -68 -11 -120 -20
-52 -9 -106 -18 -120 -20 -14 -3 -81 -14 -150 -26 -69 -11 -132 -22 -140 -23
-9 -2 -15 -13 -14 -27 1 -31 14 -121 19 -128 2 -3 6 -28 9 -56 4 -27 15 -96
25 -152 l18 -103 -36 -6 c-129 -21 -146 -27 -183 -64 -37 -36 -43 -53 -39
-113 4 -78 69 -131 156 -125 l54 3 -59 -60 c-74 -75 -120 -136 -185 -244 -46
-77 -119 -244 -129 -296 -2 -11 -9 -38 -14 -60 -23 -87 -33 -193 -34 -360 -2
-162 5 -244 32 -380 6 -27 12 -59 14 -70 18 -92 88 -306 131 -400 15 -33 34
-75 42 -93 8 -19 17 -67 20 -107 l6 -74 -64 24 c-36 13 -80 26 -99 29 -19 3
-53 8 -75 11 -143 22 -175 39 -175 93 0 48 22 79 63 91 l32 8 -30 13 c-70 28
-162 10 -217 -42 -52 -50 -63 -79 -63 -163 0 -70 4 -85 27 -121 37 -58 92
-100 170 -132 37 -15 68 -29 68 -32 0 -3 -17 -7 -38 -8 -76 -5 -163 -25 -233
-52 -83 -33 -156 -87 -271 -202 -67 -66 -127 -116 -159 -132 -56 -27 -54 -30
24 -45 86 -16 193 -4 337 36 75 21 118 27 205 27 102 1 118 -2 222 -37 l112
-38 -40 -38 c-57 -56 -102 -158 -101 -230 0 -31 8 -73 17 -95 21 -51 100 -128
162 -160 l50 -25 -10 43 c-36 159 106 240 342 194 53 -11 175 -13 189 -4 6 3
26 -16 46 -44 71 -98 170 -145 306 -143 161 1 334 72 433 177 40 42 107 167
107 198 0 26 6 23 63 -27 125 -113 253 -128 492 -58 236 69 260 74 340 80 64
4 94 2 136 -12 94 -32 160 -82 189 -147 24 -52 25 -87 5 -135 -8 -20 -13 -38
-11 -40 2 -2 31 21 64 52 146 135 155 302 24 445 -23 25 -42 48 -42 51 0 12
113 66 173 84 60 17 201 22 279 10 24 -4 57 -9 73 -11 17 -3 48 -9 70 -14 58
-13 211 -5 275 15 58 18 152 63 185 89 19 15 18 15 -21 16 -83 0 -175 38 -338
137 -151 92 -274 145 -366 159 -19 3 -42 7 -52 10 -27 8 -236 7 -249 -1 -7 -5
-10 -4 -6 2 4 6 28 16 53 22 106 27 192 89 235 171 32 62 33 167 1 227 -25 48
-63 87 -107 110 -32 17 -123 23 -169 10 l-29 -8 41 -20 c49 -24 66 -67 51
-122 -11 -42 -45 -54 -179 -62 -109 -6 -162 -13 -207 -25 -21 -5 -33 -4 -36 3
-4 13 10 68 57 214 31 99 59 197 73 258 63 282 63 584 -1 850 -8 36 -44 131
-73 195 -30 65 -116 215 -132 230 -3 3 -23 26 -43 51 -117 146 -330 311 -477
369 l-34 14 29 10 c96 35 135 137 81 217 -42 64 -98 78 -214 55 -28 -6 -32 0
-38 55 -3 24 -10 64 -15 89 -6 25 -12 59 -14 75 -3 25 -13 85 -31 180 -2 11
-4 28 -4 38 -1 15 -30 24 -42 13z"/>
</g>
</svg>
